Br EN model Validation
…
saveRDS(full_df, dir %&% "assoc_full_df.RDS")

Significant genes

number of significant associations for each gene

tempo_df <- full_df %>% filter(pvalue < .05/5601)

#428 sig genes
tempo_df %>% group_by(gene) %>% summarise(n = n())

# A tibble: 32 × 2
   gene                   n
   <chr>              <int>
 1 ENSRNOG00000000511     1
 2 ENSRNOG00000000795     1
 3 ENSRNOG00000000816     1
 4 ENSRNOG00000000831     1
 5 ENSRNOG00000000975     2
 6 ENSRNOG00000000977     1
 7 ENSRNOG00000001047     2
 8 ENSRNOG00000001069     1
 9 ENSRNOG00000001159     2
10 ENSRNOG00000001194     2
# ℹ 22 more rows
…
